# MagicaVoxel @ Ephtracy

# group
g dirt

# material
mtllib dirt.mtl
usemtl palette

# normals
vn -1 0 0
vn 1 0 0
vn 0 0 1
vn 0 0 -1
vn 0 -1 0
vn 0 1 0

# texcoords
vt 0.943359 0.5
vt 0.947266 0.5
vt 0.955078 0.5

# verts
v -4 0 4
v -4 0 -4
v -4 2 1
v -4 2 -0
v -4 2 -1
v -4 2 -2
v -4 3 1
v -4 3 -0
v -4 3 -1
v -4 3 -2
v -4 3 -3
v -4 3 -4
v -4 5 3
v -4 5 2
v -4 5 -3
v -4 5 -4
v -4 6 3
v -4 6 2
v -4 6 -0
v -4 6 -1
v -4 7 -0
v -4 7 -1
v -4 8 4
v -4 8 -4
v 4 0 4
v 4 0 -4
v 4 1 -2
v 4 1 -3
v 4 2 3
v 4 2 1
v 4 2 -2
v 4 2 -3
v 4 3 -3
v 4 3 -4
v 4 4 3
v 4 4 1
v 4 4 -3
v 4 4 -4
v 4 6 3
v 4 6 2
v 4 6 -2
v 4 6 -3
v 4 7 3
v 4 7 2
v 4 7 -2
v 4 7 -3
v 4 8 4
v 4 8 -4
v -4 0 4
v -4 8 4
v -2 5 4
v -2 6 4
v -1 1 4
v -1 2 4
v -1 5 4
v -1 6 4
v -1 7 4
v -1 8 4
v 0 1 4
v 0 2 4
v 0 7 4
v 0 8 4
v 4 0 4
v 4 8 4
v -4 0 -4
v -4 3 -4
v -4 5 -4
v -4 8 -4
v -3 3 -4
v -3 5 -4
v -2 3 -4
v -2 4 -4
v -2 5 -4
v -2 6 -4
v -1 3 -4
v -1 4 -4
v -1 5 -4
v -1 6 -4
v 0 1 -4
v 0 2 -4
v 1 1 -4
v 1 2 -4
v 2 6 -4
v 2 7 -4
v 3 3 -4
v 3 4 -4
v 3 6 -4
v 3 7 -4
v 4 0 -4
v 4 3 -4
v 4 4 -4
v 4 8 -4
v -4 0 4
v 4 0 4
v -3 0 3
v -1 0 3
v 1 0 3
v 2 0 3
v 1 0 2
v 2 0 2
v -3 0 1
v -1 0 1
v 1 0 -0
v 2 0 -0
v -2 0 -1
v -1 0 -1
v 1 0 -1
v 2 0 -1
v -2 0 -2
v -1 0 -2
v -4 0 -4
v 4 0 -4
v -4 8 4
v -1 8 4
v 0 8 4
v 4 8 4
v -1 8 3
v 0 8 3
v 1 8 1
v 2 8 1
v 1 8 -0
v 2 8 -0
v -3 8 -1
v -1 8 -1
v 2 8 -2
v 3 8 -2
v -3 8 -3
v -1 8 -3
v 2 8 -3
v 3 8 -3
v -4 8 -4
v 4 8 -4

# faces
f 3/3/1 2/3/1 1/3/1
f 4/3/1 2/3/1 3/3/1
f 5/3/1 2/3/1 4/3/1
f 6/3/1 2/3/1 5/3/1
f 7/3/1 3/3/1 1/3/1
f 7/2/1 4/2/1 3/2/1
f 8/3/1 5/3/1 4/3/1
f 8/2/1 4/2/1 7/2/1
f 9/1/1 6/1/1 5/1/1
f 9/3/1 5/3/1 8/3/1
f 10/3/1 2/3/1 6/3/1
f 10/1/1 6/1/1 9/1/1
f 11/3/1 2/3/1 10/3/1
f 12/3/1 2/3/1 11/3/1
f 13/3/1 9/3/1 8/3/1
f 13/3/1 8/3/1 7/3/1
f 13/3/1 7/3/1 1/3/1
f 13/3/1 11/3/1 10/3/1
f 13/3/1 10/3/1 9/3/1
f 14/3/1 11/3/1 13/3/1
f 15/2/1 12/2/1 11/2/1
f 15/3/1 11/3/1 14/3/1
f 16/2/1 12/2/1 15/2/1
f 17/2/1 14/2/1 13/2/1
f 17/3/1 13/3/1 1/3/1
f 18/3/1 16/3/1 15/3/1
f 18/2/1 14/2/1 17/2/1
f 18/3/1 15/3/1 14/3/1
f 19/3/1 16/3/1 18/3/1
f 20/3/1 16/3/1 19/3/1
f 21/3/1 18/3/1 17/3/1
f 21/3/1 19/3/1 18/3/1
f 21/1/1 20/1/1 19/1/1
f 22/3/1 16/3/1 20/3/1
f 22/1/1 20/1/1 21/1/1
f 23/3/1 17/3/1 1/3/1
f 23/3/1 21/3/1 17/3/1
f 23/3/1 22/3/1 21/3/1
f 24/3/1 16/3/1 22/3/1
f 24/3/1 22/3/1 23/3/1
f 25/3/2 26/3/2 27/3/2
f 27/3/2 26/3/2 28/3/2
f 25/3/2 27/3/2 29/3/2
f 29/3/2 27/3/2 30/3/2
f 27/1/2 28/1/2 31/1/2
f 30/3/2 27/3/2 31/3/2
f 28/3/2 26/3/2 32/3/2
f 31/1/2 28/1/2 32/1/2
f 30/3/2 31/3/2 33/3/2
f 32/3/2 26/3/2 33/3/2
f 31/3/2 32/3/2 33/3/2
f 33/3/2 26/3/2 34/3/2
f 25/3/2 29/3/2 35/3/2
f 29/2/2 30/2/2 35/2/2
f 30/3/2 33/3/2 36/3/2
f 35/2/2 30/2/2 36/2/2
f 33/2/2 34/2/2 37/2/2
f 36/3/2 33/3/2 37/3/2
f 37/2/2 34/2/2 38/2/2
f 35/3/2 36/3/2 39/3/2
f 25/3/2 35/3/2 39/3/2
f 37/3/2 38/3/2 39/3/2
f 36/3/2 37/3/2 39/3/2
f 39/3/2 38/3/2 40/3/2
f 40/3/2 38/3/2 41/3/2
f 41/3/2 38/3/2 42/3/2
f 25/3/2 39/3/2 43/3/2
f 39/1/2 40/1/2 43/1/2
f 40/3/2 41/3/2 44/3/2
f 43/1/2 40/1/2 44/1/2
f 41/1/2 42/1/2 45/1/2
f 44/3/2 41/3/2 45/3/2
f 42/3/2 38/3/2 46/3/2
f 45/1/2 42/1/2 46/1/2
f 44/3/2 45/3/2 47/3/2
f 43/3/2 44/3/2 47/3/2
f 45/3/2 46/3/2 47/3/2
f 25/3/2 43/3/2 47/3/2
f 46/3/2 38/3/2 48/3/2
f 47/3/2 46/3/2 48/3/2
f 51/3/3 50/3/3 49/3/3
f 52/3/3 50/3/3 51/3/3
f 53/3/3 51/3/3 49/3/3
f 54/3/3 51/3/3 53/3/3
f 55/2/3 52/2/3 51/2/3
f 55/3/3 51/3/3 54/3/3
f 56/3/3 50/3/3 52/3/3
f 56/2/3 52/2/3 55/2/3
f 57/3/3 50/3/3 56/3/3
f 58/3/3 50/3/3 57/3/3
f 59/2/3 54/2/3 53/2/3
f 59/3/3 53/3/3 49/3/3
f 60/3/3 55/3/3 54/3/3
f 60/2/3 54/2/3 59/2/3
f 60/3/3 56/3/3 55/3/3
f 60/3/3 57/3/3 56/3/3
f 61/2/3 58/2/3 57/2/3
f 61/3/3 57/3/3 60/3/3
f 62/2/3 58/2/3 61/2/3
f 63/3/3 59/3/3 49/3/3
f 63/3/3 60/3/3 59/3/3
f 63/3/3 62/3/3 61/3/3
f 63/3/3 61/3/3 60/3/3
f 64/3/3 62/3/3 63/3/3
f 65/3/4 66/3/4 69/3/4
f 66/2/4 67/2/4 69/2/4
f 67/3/4 68/3/4 70/3/4
f 69/2/4 67/2/4 70/2/4
f 65/3/4 69/3/4 71/3/4
f 69/3/4 70/3/4 71/3/4
f 71/3/4 70/3/4 72/3/4
f 70/3/4 68/3/4 73/3/4
f 72/3/4 70/3/4 73/3/4
f 73/3/4 68/3/4 74/3/4
f 71/1/4 72/1/4 75/1/4
f 65/3/4 71/3/4 75/3/4
f 72/3/4 73/3/4 76/3/4
f 75/1/4 72/1/4 76/1/4
f 73/2/4 74/2/4 77/2/4
f 76/3/4 73/3/4 77/3/4
f 74/3/4 68/3/4 78/3/4
f 77/2/4 74/2/4 78/2/4
f 76/3/4 77/3/4 79/3/4
f 75/3/4 76/3/4 79/3/4
f 77/3/4 78/3/4 79/3/4
f 65/3/4 75/3/4 79/3/4
f 79/3/4 78/3/4 80/3/4
f 65/3/4 79/3/4 81/3/4
f 79/2/4 80/2/4 81/2/4
f 80/3/4 78/3/4 82/3/4
f 81/2/4 80/2/4 82/2/4
f 78/3/4 68/3/4 83/3/4
f 82/3/4 78/3/4 83/3/4
f 81/3/4 82/3/4 83/3/4
f 83/3/4 68/3/4 84/3/4
f 81/3/4 83/3/4 85/3/4
f 85/3/4 83/3/4 86/3/4
f 83/1/4 84/1/4 87/1/4
f 86/3/4 83/3/4 87/3/4
f 84/3/4 68/3/4 88/3/4
f 87/1/4 84/1/4 88/1/4
f 65/3/4 81/3/4 89/3/4
f 81/3/4 85/3/4 89/3/4
f 85/2/4 86/2/4 90/2/4
f 89/3/4 85/3/4 90/3/4
f 86/3/4 87/3/4 91/3/4
f 90/2/4 86/2/4 91/2/4
f 87/3/4 88/3/4 91/3/4
f 88/3/4 68/3/4 92/3/4
f 91/3/4 88/3/4 92/3/4
f 95/3/5 94/3/5 93/3/5
f 96/3/5 94/3/5 95/3/5
f 97/3/5 94/3/5 96/3/5
f 98/3/5 94/3/5 97/3/5
f 99/3/5 97/3/5 96/3/5
f 99/1/5 98/1/5 97/1/5
f 100/3/5 94/3/5 98/3/5
f 100/1/5 98/1/5 99/1/5
f 101/3/5 95/3/5 93/3/5
f 101/2/5 96/2/5 95/2/5
f 102/3/5 100/3/5 99/3/5
f 102/2/5 96/2/5 101/2/5
f 102/3/5 99/3/5 96/3/5
f 103/3/5 102/3/5 101/3/5
f 103/3/5 100/3/5 102/3/5
f 104/3/5 94/3/5 100/3/5
f 104/3/5 100/3/5 103/3/5
f 105/3/5 103/3/5 101/3/5
f 106/3/5 103/3/5 105/3/5
f 107/2/5 104/2/5 103/2/5
f 107/3/5 103/3/5 106/3/5
f 108/3/5 94/3/5 104/3/5
f 108/2/5 104/2/5 107/2/5
f 109/2/5 106/2/5 105/2/5
f 109/3/5 105/3/5 101/3/5
f 110/3/5 107/3/5 106/3/5
f 110/2/5 106/2/5 109/2/5
f 110/3/5 108/3/5 107/3/5
f 111/3/5 109/3/5 101/3/5
f 111/3/5 101/3/5 93/3/5
f 111/3/5 110/3/5 109/3/5
f 112/3/5 108/3/5 110/3/5
f 112/3/5 110/3/5 111/3/5
f 112/3/5 94/3/5 108/3/5
f 113/3/6 114/3/6 117/3/6
f 114/2/6 115/2/6 117/2/6
f 115/3/6 116/3/6 118/3/6
f 117/2/6 115/2/6 118/2/6
f 117/3/6 118/3/6 119/3/6
f 118/3/6 116/3/6 119/3/6
f 119/3/6 116/3/6 120/3/6
f 117/3/6 119/3/6 121/3/6
f 119/2/6 120/2/6 121/2/6
f 120/3/6 116/3/6 122/3/6
f 121/2/6 120/2/6 122/2/6
f 113/3/6 117/3/6 123/3/6
f 117/3/6 121/3/6 123/3/6
f 121/3/6 122/3/6 123/3/6
f 123/3/6 122/3/6 124/3/6
f 122/3/6 116/3/6 125/3/6
f 124/3/6 122/3/6 125/3/6
f 125/3/6 116/3/6 126/3/6
f 123/2/6 124/2/6 127/2/6
f 113/3/6 123/3/6 127/3/6
f 124/3/6 125/3/6 128/3/6
f 127/2/6 124/2/6 128/2/6
f 125/1/6 126/1/6 129/1/6
f 128/3/6 125/3/6 129/3/6
f 126/3/6 116/3/6 130/3/6
f 129/1/6 126/1/6 130/1/6
f 128/3/6 129/3/6 131/3/6
f 127/3/6 128/3/6 131/3/6
f 129/3/6 130/3/6 131/3/6
f 113/3/6 127/3/6 131/3/6
f 130/3/6 116/3/6 132/3/6
f 131/3/6 130/3/6 132/3/6
