%YAML 1.1
%TAG !u! tag:unity3d.com,2011:
--- !u!114 &11400000
MonoBehaviour:
  m_ObjectHideFlags: 0
  m_CorrespondingSourceObject: {fileID: 0}
  m_PrefabInstance: {fileID: 0}
  m_PrefabAsset: {fileID: 0}
  m_GameObject: {fileID: 0}
  m_Enabled: 1
  m_EditorHideFlags: 0
  m_Script: {fileID: 11500000, guid: ff0f9b63cc9b48841b0c11a1eb1bb44c, type: 3}
  m_Name: dirt
  m_EditorClassIdentifier: 
  block_name: Dirt
  id: 1:0
  mesh: {fileID: 4300000, guid: a13054f1afa4fed4ab992b1a9801af43, type: 3}
  mat: {fileID: 2100000, guid: c96af6fdce8667e4690da673458e5ba1, type: 2}
  isTransparent: 0
  isWalkable: 1
